7825 67176 340
939745 751547 525
435031 461729 444
85759 240573 443
599911 723403 509
370145 305262 441
416791 902488 525
886077 150099 525
247295 544326 470
995387 213241 525
548754 554026 377
373146 387760 423
32811 434135 449
384638 195355 443
852587 131853 525
698448 203019 509
802186 817258 406
470289 836818 509
480929 798374 509
702045 192340 509
465131 52591 449
925057 192042 525
319779 498446 449
584879 369698 470
260494 349174 441
864579 551670 525
740040 437734 509
270350 856748 525
755139 456093 509
521890 191148 470
133195 232959 443
299194 321556 384
299286 414618 449
584069 347215 470
867926 155779 525
791793 67407 509
704837 339693 509
96642 679382 509
553456 898007 525
633453 147210 509
606078 752936 509
606560 326945 470
344107 174295 443
409523 559566 470
405641 907920 525
706763 895773 525
867213 312057 525
580747 560848 421
552959 134911 470
632876 840737 525
408827 335276 441
943534 321186 525
484666 194103 449
176412 841277 525
435646 552064 470
796805 31591 509
869162 675509 525
7400 619841 470
632605 993704 525
109662 283176 443
40566 110194 354
923817 529163 525
168966 691586 509
630941 173345 509
159674 539543 470
32137 482896 449
463313 997448 525
76908 579215 470
231022 321415 407
832288 668617 504
645438 813158 504
953794 451551 525
264310 400361 441
335678 457641 449
219587 277260 443
33480 37768 324
461919 590731 470
525183 378968 470
55247 988338 525
335403 782318 509
610038 985678 525
836386 470147 509
261692 114812 443
455784 600704 470
761305 607701 509
38574 245629 443
688237 368699 509
57178 527520 470
579581 908497 525
636771 864995 525
972817 344972 525
494077 866372 525
567035 850966 525
331173 560938 470
570414 164885 470
736502 27797 509
626130 53342 470
745972 968335 525
303048 822160 509
722685 83227 509
167744 763211 509
358446 82485 443
57504 309829 443
893267 265287 525
879449 394994 525
464376 324406 449
774309 766476 468
530789 736860 509
259078 6058 443
296134 838659 525
704595 609070 509
713555 84730 509
72897 166097 383
886404 764164 525
963572 985501 458
484122 902740 525
995915 965751 458
612591 479781 470
427737 2354 449
88896 995483 525
945766 625273 525
405942 942448 525
121797 87392 354
879011 625953 525
655191 641016 416
115519 868505 525
630018 203124 509
585331 476767 470
485933 469239 413
915024 268079 525
572376 824039 509
494000 450751 444
761313 892323 525
454618 904433 525
224702 603994 470
253625 321658 407
886533 399360 525
944275 30683 525
230234 629959 509
955288 492035 525
363578 122455 443
846265 343955 525
42866 585269 470
278946 306578 389
45068 169285 383
560708 134051 470
829426 750814 468
710222 814893 468
955584 279121 525
867446 603511 525
498575 365616 449
368081 896944 525
978503 839046 507
248439 899448 525
305316 64963 443
49646 111367 354
158361 571339 470
488855 172716 449
377892 470823 449
584110 372448 470
250828 647601 509
620359 606694 447
95227 251654 443
694961 118630 509
38038 531527 470
967433 502451 525
181264 242794 443
646044 475884 509
44806 653892 509
45824 670254 509
670983 679120 385
468432 640969 509
992755 628496 525
560997 855634 525
764251 305375 509
608429 703382 509
30909 904531 525
224622 158684 386
596861 287733 470
308689 234839 407
490120 192697 449
449543 852745 525
538381 782292 509
370615 728588 509
131829 887352 525
951428 980828 458
440263 531931 470
269492 951728 525
962771 996816 458
583182 602802 434
404198 800501 509
580492 640512 509
565645 731562 509
340129 434180 449
661516 93005 509
788310 792885 437
763576 684164 504
804088 802552 300
801355 758708 468
386734 11481 443
325383 792307 509
73385 817930 509
512036 38616 470
47593 279600 443
667496 259944 509
608898 227205 470
246542 591030 470
376587 652320 509
118546 937717 525
67530 646154 509
652591 445512 509
617638 175821 470
289189 683751 509
346176 272074 441
302156 635032 509
616294 314961 470
280052 95127 443
101034 953268 525
509872 79149 449
546696 603842 434
449274 517156 470
398167 791104 509
393968 729518 509
816389 344313 509
135433 896218 525
802462 667219 504
107136 305326 443
766494 829597 468
854014 838165 419
203329 30194 383
130908 132714 331
104442 106215 341
576205 539722 452
735173 661960 504
747074 822756 468
962737 271862 525
939589 397834 525
531507 770365 509
309830 362528 441
879653 839928 432
97598 385164 443
855914 119885 525
107860 955004 525
393449 257733 441
418560 831055 509
486332 691579 509
328236 633926 509
661048 935932 525
319601 727225 509
727445 793661 468
