198076 192858 360
226400 228188 368
117608 118690 336
595937 595173 328
213469 213842 298
733908 731978 380
762919 768507 468
923394 928587 476
337467 333614 366
710840 719601 411
496632 492997 395
646558 643222 323
792555 797596 468
976316 977028 334
75084 78705 351
136624 131556 344
960737 961046 414
287008 282490 376
441436 447793 356
366806 361882 361
149630 146128 357
683792 687107 398
342613 341756 353
837610 834213 344
987322 986071 396
454110 456138 338
906992 908477 370
572389 579046 390
116860 115388 349
285841 285141 376
569030 564443 421
1620 3166 217
128083 128859 331
540569 548753 452
22489 20081 269
776300 773633 437
271040 273034 314
528416 522876 408
854016 854496 419
459919 452825 369
251463 252130 257
593036 593867 328
183670 186426 329
44830 43752 270
254672 255600 363
374050 370768 348
308481 300922 371
22255 25951 282
679875 677179 380
4980 8793 262
249310 246150 350
645896 647995 341
252117 254946 363
347807 344132 441
110170 111816 323
946952 943110 383
184110 188872 347
330451 331654 322
732722 739944 424
833390 839518 525
114817 116456 349
200880 208318 373
416920 410235 387
328574 326921 322
796020 798287 468
471113 476020 382
571696 575838 372
713763 715064 305
442139 443945 356
196193 198179 329
967251 961226 414
335606 339504 366
282268 284242 358
167108 164663 352
392766 391863 330
67951 355977 443
355872 716495 509
684416 873008 525
10896 281870 443
962407 392873 525
41506 557977 470
554468 313903 470
402261 31573 443
440173 740887 509
608285 486691 470
646314 730726 504
820389 792953 468
546976 910008 525
144306 292954 443
671363 283295 509
129040 855996 525
350601 899477 525
55813 842235 525
594291 798488 509
371741 804278 509
303406 321786 384
541366 742574 509
298203 437366 449
664321 126383 509
668141 203753 509
438879 693944 509
635357 877256 525
438828 253400 449
464090 452931 444
215046 320339 443
945485 622066 525
433357 448303 400
640568 227645 509
116700 535374 470
373721 304116 441
72317 222964 386
434806 698940 509
753630 742171 424
570199 90766 470
131674 208606 383
121252 942711 525
632378 418315 509
603325 559123 434
833700 655463 504
609324 950306 525
410568 886669 525
168760 652110 509
765753 987435 525
596646 995880 525
891277 322813 525
426164 579174 470
267625 87517 443
234790 848775 525
26992 299904 443
45704 774912 509
181991 239780 443
514569 569223 452
452680 421730 418
296382 278911 389
112486 903692 525
827897 875631 525
317508 844739 525
258190 150065 443
583941 746554 509
413262 321755 449
434728 739830 509
490151 778660 509
749314 609840 509
641832 772018 504
19280 994682 525
736257 209505 509
537840 335209 470
351229 913274 525
532633 707402 509
501334 839395 525
388940 625983 470
684008 791288 504
404387 272276 441
578884 102182 470
966410 369873 525
137859 610219 470
650186 108406 509
862920 4737 525
497437 98717 449
784578 283381 509
655462 332009 509
25820 627083 509
630947 511033 509
864827 473572 525
644535 923159 525
894255 949985 507
959851 233152 525
215724 111241 383
604619 187764 470
605195 623271 447
601686 244729 470
238280 628786 509
684246 565543 509
874042 538175 525
482208 644385 509
361734 399255 436
335651 84800 443
956917 316966 525
216452 681300 509
211798 117740 383
720649 14757 509
139126 83172 354
731800 228499 509
939857 113731 525
149520 516258 470
831847 125648 509
27586 123647 354
420147 832734 509
572463 341586 470
609061 319796 470
715761 53102 509
271943 975405 525
393117 884207 525
766759 419200 509
237164 905035 525
913800 32509 525
123704 129208 331
236461 580972 470
897915 767384 525
106855 203972 383
651315 305211 509
935074 738076 525
120478 996420 525
694249 940301 525
134870 288539 443
883123 681922 525
553909 31720 470
493673 594665 470
802292 60437 509
673383 968504 525
937823 883313 476
550095 923921 525
167411 768094 509
121944 11374 354
864629 466793 525
205675 426845 449
436145 190287 449
183747 974716 525
834539 212171 509
693920 757876 504
121479 658393 509
464609 329818 449
247897 622254 470
215096 704637 509
136778 733570 509
